<svg xmlns="http://www.w3.org/2000/svg" width="70" height="70" fill="none" viewBox="0 0 70 70">
  <rect width="70" height="70" fill="#EDEDED" rx="10"/>
  <path fill="#000" d="M25.644 60.136h7.616v1.168h-7.616v-1.168Zm.016-4.672h7.568v1.152H25.66v-1.152Zm3.088-7.872h1.168v13.28h-1.168v-13.28Zm-3.792 3.328h8.88v11.232h-1.184v-10.08h-6.544v10.176h-1.152V50.92Zm-4.384-2.272.704-.88c1.024.448 2.416 1.184 3.104 1.712l-.704.992c-.672-.544-2.048-1.328-3.104-1.824Zm-.816 4.384.672-.896c1.008.432 2.352 1.152 3.024 1.664l-.672.992c-.656-.512-1.984-1.28-3.024-1.76Zm.544 8.224c.752-1.088 1.824-2.928 2.64-4.544l.912.768a61.36 61.36 0 0 1-2.512 4.56l-1.04-.784ZM37.948 48.12h3.344v1.104h-3.344V48.12Zm.048 3.76h3.232v1.104h-3.232V51.88Zm-.032 3.824h3.232v1.136h-3.232v-1.136Zm-.512-7.584h1.072v5.76c0 2.48-.144 6.032-1.248 8.4-.208-.176-.688-.448-.96-.56 1.056-2.256 1.136-5.472 1.136-7.84v-5.76Zm3.312 0h1.104v12.704c0 .624-.144.992-.528 1.2-.416.176-1.008.208-2.064.208a4.13 4.13 0 0 0-.336-1.136c.704.032 1.344.016 1.536.016.208-.016.288-.08.288-.304V48.12Zm2.528 7.088h7.12v7.008h-1.168v-5.984h-4.816v6.048h-1.136v-7.072Zm6.256-6.768.88.928c-1.68.8-4.256 1.44-6.448 1.872a4.966 4.966 0 0 0-.384-.928c2.128-.448 4.576-1.152 5.952-1.872Zm-5.776 12.144h6.064v1.024h-6.064v-1.024Zm0-2.704h6.064v.976h-6.064v-.976Zm-.592-10.224h1.136v4.464c0 .528.192.64 1.2.64h3.52c.864 0 .992-.272 1.088-2.016.256.192.752.368 1.072.448-.176 2.128-.544 2.64-2.08 2.64h-3.664c-1.792 0-2.272-.336-2.272-1.696v-4.48Z"/>
  <path stroke="#000" stroke-linejoin="round" stroke-width="1.5" d="M30.69 38.463c0 3.058-2.393 5.537-5.345 5.537S20 41.521 20 38.463c0-3.057 5.345-12.596 5.345-12.596s5.345 9.539 5.345 12.596ZM51 32.007c0 4.856-3.829 8.793-8.552 8.793-4.723 0-8.551-3.937-8.551-8.793C33.897 27.15 42.448 12 42.448 12S51 27.15 51 32.007Z"/>
</svg>
