<svg xmlns="http://www.w3.org/2000/svg" width="70" height="70" fill="none" viewBox="0 0 70 70">
  <rect width="70" height="70" fill="#EDEDED" rx="10"/>
  <path fill="#000" d="M8.98 49.748h10.644v.804H8.98v-.804Zm.12 2.088h3.684v.756H9.1v-.756Zm2.232 3.348h1.956v.768h-1.956v-.768Zm2.052-2.844h6.312v.768h-6.312v-.768Zm-1.572-3.408h.888v2.46h-.888v-2.46Zm-.864 4.512h.78v4.992h-.78v-4.992Zm-1.524.612h.744v4.716h-.744v-4.716Zm6.396-5.124h.9v2.388h-.9v-2.388Zm.192 2.64h.828v1.344h-.828v-1.344Zm-.12 4.224h.732v3.792h-.732v-3.792Zm-3.372-3.96h.18l.156-.048.516.372a9.944 9.944 0 0 1-1.764 1.908 3.053 3.053 0 0 0-.468-.492c.492-.408 1.08-1.08 1.38-1.596v-.144ZM8.74 58.64c1.152-.252 2.94-.708 4.668-1.128l.084.768c-1.608.432-3.312.876-4.56 1.2l-.192-.84Zm4.704-4.104c1.344-.024 3.444-.084 5.484-.156l-.024.708a356.71 356.71 0 0 1-5.4.204l-.06-.756Zm2.004-1.836.804.3c-.36.696-.78 1.488-1.128 2.004l-.624-.264c.312-.552.732-1.44.948-2.04Zm1.836 1.008.612-.384c.72.54 1.536 1.344 1.908 1.92l-.672.42c-.348-.564-1.14-1.392-1.848-1.956Zm.432 1.992h.756v3.036c0 .216.012.36.06.396.036.036.096.06.18.06h.3c.084 0 .18-.012.216-.048.06-.036.096-.12.132-.264.024-.168.036-.528.036-1.008.156.12.42.252.612.312-.012.468-.036.996-.108 1.176a.62.62 0 0 1-.324.384c-.132.072-.336.096-.516.096h-.516c-.216 0-.468-.048-.612-.192-.156-.144-.216-.324-.216-1.008V55.7Zm-3.6.024h.756v1.308c0 .972-.264 2.16-1.8 2.928a3.664 3.664 0 0 0-.552-.492c1.38-.672 1.596-1.668 1.596-2.448v-1.296Zm7.5-5.964H32.2v.816H21.616v-.816Zm2.808-.828h.9v2.592h-.9v-2.592Zm4.02 0h.912v2.46h-.912v-2.46Zm-6.864 6.912h10.656v.804H21.58v-.804Zm4.812-.924h.936v5.04h-.936v-5.04Zm-.348 1.26.732.348c-1.104 1.38-3.084 2.616-4.86 3.216a3.56 3.56 0 0 0-.624-.792c1.764-.492 3.744-1.596 4.752-2.772Zm1.668.06c.984 1.176 2.916 2.184 4.728 2.628-.204.192-.48.552-.612.792-1.812-.552-3.756-1.728-4.824-3.12l.708-.3Zm2.904-4.968.72.708c-2.34.54-6.072.804-9.144.864a3.25 3.25 0 0 0-.216-.78c3.024-.072 6.696-.336 8.64-.792Zm-8.088 2.184.756-.312c.468.528.936 1.26 1.104 1.776l-.804.348c-.156-.516-.612-1.26-1.056-1.812Zm3.312-.312.792-.264c.336.528.672 1.2.756 1.68l-.84.288c-.084-.468-.384-1.176-.708-1.704Zm4.728-.456.912.336c-.492.804-1.092 1.728-1.572 2.316l-.696-.312a14.148 14.148 0 0 0 1.356-2.34Zm6.593-2.824-2.813 10.449h-.498l2.812-10.45h.499Zm6.27 1.084h.865v7.464h-.864v-7.464Zm-3.24-.972 1.129.264c-.012.084-.084.144-.252.156V52.7c0 2.064-.216 5.076-1.86 7.26-.132-.18-.456-.468-.684-.576 1.512-2.016 1.668-4.728 1.668-6.696v-2.712Zm7.273-.228c.204 4.08.672 7.824 2.268 9.492a3.697 3.697 0 0 0-.672.756c-1.728-1.956-2.208-5.748-2.436-10.2l.84-.048Zm-6.576 8.436c1.404-.12 3.588-.336 5.688-.54l.012.84c-2.016.216-4.128.444-5.592.6l-.108-.9Zm4.428-2.208.732-.192c.576 1.2 1.188 2.796 1.404 3.744l-.78.24c-.216-.96-.792-2.58-1.356-3.792Zm2.34-6.9.756.708c-2.052.528-5.064.96-7.668 1.224a3.02 3.02 0 0 0-.252-.744c2.544-.276 5.508-.708 7.164-1.188Zm8.58-.156h.9v1.416h-.9V48.92Zm-4.56.876h10.068v1.92h-.852v-1.188h-8.388v1.188h-.828v-1.92Zm4.632 1.536h.768c-.06.768-.144 1.704-.228 2.292h-.78c.096-.612.192-1.548.24-2.292Zm-2.568 4.692v.552h5.976v-.552H53.74Zm0 1.08v.564h5.976v-.564H53.74Zm0-2.148v.528h5.976v-.528H53.74Zm-.876-.552h7.764v3.816h-7.764v-3.816Zm4.608 4.332.612-.516c1.452.384 3.024.876 3.996 1.224l-.78.528a43.221 43.221 0 0 0-3.828-1.236Zm-3.312-7.092-.216 1.704h5.34l.132-1.704H54.16Zm-.732-.54h6.876l-.24 2.784h-7.008l.372-2.784Zm1.68 7.104.744.468c-.936.588-2.628 1.08-4.044 1.32a5.148 5.148 0 0 0-.54-.624c1.404-.216 3.108-.684 3.84-1.164ZM51.4 52.136h2.508v.06h5.532v-.06h2.592v.684H59.44v-.06h-5.532v.06H51.4v-.684Z"/>
  <path stroke="#000" stroke-linecap="round" stroke-linejoin="round" stroke-width="1.5" d="M46.978 13.192c-.958-.98-2.781-2.014-5.142-1.944-2.36.07-5.245 1.242-8.333 4.649-1.862.62-6.54 2.959-10.576 7.418a.115.115 0 0 0-.005.007c-1.766 1.951-3.134 5.202-3.838 8.587-.704 3.385-.373 6.925 2.408 9.441 2.781 2.517 6.336 2.494 9.633 1.457 3.297-1.037 6.63-2.981 8.16-4.672a.092.092 0 0 0 .007-.006c4.034-4.46 5.894-9.346 6.326-11.26 3.082-3.412 3.96-6.4 3.794-8.754-.164-2.334-1.355-4.036-2.418-4.9a.072.072 0 0 0-.016-.023Zm0 0c.563-.563 2.143-1.573 3.958-1.106m-12.053 6.255c1.25-.119 2.178.372 2.65.864a.033.033 0 0 1 .008.012c.533.426 1.104 1.296 1.11 2.54.007 1.255-.56 2.885-2.306 4.818-.294 1.04-1.445 3.72-3.73 6.246l-.004.003c-1.01.908-2.695 2.114-4.474 2.783-1.778.668-3.658.802-5.041-.45-1.384-1.251-1.437-3.135-.949-4.972.489-1.836 1.521-3.634 2.324-4.73l.003-.003c2.286-2.527 4.84-3.94 5.845-4.336 1.749-1.93 3.314-2.657 4.564-2.775Zm2.58.91c-.465-.474-1.368-.946-2.583-.831-1.225.116-2.773.83-4.514 2.754a.047.047 0 0 1-.018.012c-.986.386-3.535 1.791-5.818 4.314-.797 1.088-1.823 2.875-2.307 4.696-.485 1.823-.427 3.672.93 4.9 1.355 1.226 3.2 1.1 4.966.436 1.764-.663 3.439-1.86 4.442-2.762 2.282-2.523 3.426-5.199 3.712-6.218a.046.046 0 0 1 .01-.018c1.74-1.924 2.296-3.535 2.29-4.766-.007-1.231-.577-2.087-1.099-2.497a.033.033 0 0 1-.012-.02Z"/>
</svg>
