<svg xmlns="http://www.w3.org/2000/svg" width="70" height="70" fill="none" viewBox="0 0 70 70">
  <rect width="70" height="70" fill="#EDEDED" rx="10"/>
  <path fill="#000" d="M8.98 49.748h10.644v.804H8.98v-.804Zm.12 2.088h3.684v.756H9.1v-.756Zm2.232 3.348h1.956v.768h-1.956v-.768Zm2.052-2.844h6.312v.768h-6.312v-.768Zm-1.572-3.408h.888v2.46h-.888v-2.46Zm-.864 4.512h.78v4.992h-.78v-4.992Zm-1.524.612h.744v4.716h-.744v-4.716Zm6.396-5.124h.9v2.388h-.9v-2.388Zm.192 2.64h.828v1.344h-.828v-1.344Zm-.12 4.224h.732v3.792h-.732v-3.792Zm-3.372-3.96h.18l.156-.048.516.372a9.944 9.944 0 0 1-1.764 1.908 3.053 3.053 0 0 0-.468-.492c.492-.408 1.08-1.08 1.38-1.596v-.144ZM8.74 58.64c1.152-.252 2.94-.708 4.668-1.128l.084.768c-1.608.432-3.312.876-4.56 1.2l-.192-.84Zm4.704-4.104c1.344-.024 3.444-.084 5.484-.156l-.024.708a356.71 356.71 0 0 1-5.4.204l-.06-.756Zm2.004-1.836.804.3c-.36.696-.78 1.488-1.128 2.004l-.624-.264c.312-.552.732-1.44.948-2.04Zm1.836 1.008.612-.384c.72.54 1.536 1.344 1.908 1.92l-.672.42c-.348-.564-1.14-1.392-1.848-1.956Zm.432 1.992h.756v3.036c0 .216.012.36.06.396.036.036.096.06.18.06h.3c.084 0 .18-.012.216-.048.06-.036.096-.12.132-.264.024-.168.036-.528.036-1.008.156.12.42.252.612.312-.012.468-.036.996-.108 1.176a.62.62 0 0 1-.324.384c-.132.072-.336.096-.516.096h-.516c-.216 0-.468-.048-.612-.192-.156-.144-.216-.324-.216-1.008V55.7Zm-3.6.024h.756v1.308c0 .972-.264 2.16-1.8 2.928a3.664 3.664 0 0 0-.552-.492c1.38-.672 1.596-1.668 1.596-2.448v-1.296Zm7.5-5.964H32.2v.816H21.616v-.816Zm2.808-.828h.9v2.592h-.9v-2.592Zm4.02 0h.912v2.46h-.912v-2.46Zm-6.864 6.912h10.656v.804H21.58v-.804Zm4.812-.924h.936v5.04h-.936v-5.04Zm-.348 1.26.732.348c-1.104 1.38-3.084 2.616-4.86 3.216a3.56 3.56 0 0 0-.624-.792c1.764-.492 3.744-1.596 4.752-2.772Zm1.668.06c.984 1.176 2.916 2.184 4.728 2.628-.204.192-.48.552-.612.792-1.812-.552-3.756-1.728-4.824-3.12l.708-.3Zm2.904-4.968.72.708c-2.34.54-6.072.804-9.144.864a3.25 3.25 0 0 0-.216-.78c3.024-.072 6.696-.336 8.64-.792Zm-8.088 2.184.756-.312c.468.528.936 1.26 1.104 1.776l-.804.348c-.156-.516-.612-1.26-1.056-1.812Zm3.312-.312.792-.264c.336.528.672 1.2.756 1.68l-.84.288c-.084-.468-.384-1.176-.708-1.704Zm4.728-.456.912.336c-.492.804-1.092 1.728-1.572 2.316l-.696-.312a14.148 14.148 0 0 0 1.356-2.34Zm6.593-2.824-2.813 10.449h-.498l2.812-10.45h.499Zm1.603-.128h10.692v.732H38.764v-.732Zm0 2.34h10.68v.72h-10.68v-.72Zm2.82-3.144h.888v2.448h-.888v-2.448Zm4.104 0h.888v2.496h-.888v-2.496Zm-6.96 7.644h10.776v.72H38.728v-.72Zm4.896-.996h.888v4.38h-.888v-4.38Zm-.312 1.356.672.336c-1.14 1.104-3.216 2.076-4.944 2.52a4.029 4.029 0 0 0-.564-.72c1.728-.36 3.78-1.2 4.836-2.136Zm1.536-.048c1.008 1.008 3.024 1.836 4.872 2.172-.192.18-.444.54-.576.768-1.86-.432-3.864-1.428-4.968-2.652l.672-.288Zm-4.452-5.7h.888v3.768h7.8v.732h-8.688v-4.5Zm2.892-.108h.852v2.592h2.508v-2.496h.888v3.096h-4.248V51.08Zm8.136-1.32h10.584v.816H51.424v-.816Zm2.808-.828h.9v2.592h-.9v-2.592Zm4.02 0h.912v2.46h-.912v-2.46Zm-6.864 6.912h10.656v.804H51.388v-.804Zm4.812-.924h.936v5.04H56.2v-5.04Zm-.348 1.26.732.348c-1.104 1.38-3.084 2.616-4.86 3.216a3.56 3.56 0 0 0-.624-.792c1.764-.492 3.744-1.596 4.752-2.772Zm1.668.06c.984 1.176 2.916 2.184 4.728 2.628-.204.192-.48.552-.612.792-1.812-.552-3.756-1.728-4.824-3.12l.708-.3Zm2.904-4.968.72.708c-2.34.54-6.072.804-9.144.864a3.25 3.25 0 0 0-.216-.78c3.024-.072 6.696-.336 8.64-.792Zm-8.088 2.184.756-.312c.468.528.936 1.26 1.104 1.776l-.804.348c-.156-.516-.612-1.26-1.056-1.812Zm3.312-.312.792-.264c.336.528.672 1.2.756 1.68l-.84.288c-.084-.468-.384-1.176-.708-1.704Zm4.728-.456.912.336c-.492.804-1.092 1.728-1.572 2.316l-.696-.312a14.148 14.148 0 0 0 1.356-2.34Z"/>
  <path stroke="#000" stroke-linecap="round" stroke-linejoin="round" stroke-width="1.5" d="M29.945 16.978c-8.33 3.664-7.913 11.717-6.762 15.018 4.672-7.76 15.04-11.579 19.64-12.518-4.584 2.123-10.814 7.61-13.355 10.087-4.155 3.846-6.407 9.397-7.014 11.692.982 1.287 2.184.834 2.662.447.515-1.973 2.208-5.12 2.99-6.448 4.021 1.5 9.051.033 11.063-.889 5.569-2.777 7.048-6.852 7.23-9.998.288-4.968.448-7.198 4.295-9.565-9.322-1.602-17.399.7-20.75 2.174Z"/>
</svg>
