<svg xmlns="http://www.w3.org/2000/svg" width="70" height="70" fill="none" viewBox="0 0 70 70">
  <rect width="70" height="70" fill="#EDEDED" rx="10"/>
  <path fill="#000" d="M8.98 49.748h10.644v.804H8.98v-.804Zm.12 2.088h3.684v.756H9.1v-.756Zm2.232 3.348h1.956v.768h-1.956v-.768Zm2.052-2.844h6.312v.768h-6.312v-.768Zm-1.572-3.408h.888v2.46h-.888v-2.46Zm-.864 4.512h.78v4.992h-.78v-4.992Zm-1.524.612h.744v4.716h-.744v-4.716Zm6.396-5.124h.9v2.388h-.9v-2.388Zm.192 2.64h.828v1.344h-.828v-1.344Zm-.12 4.224h.732v3.792h-.732v-3.792Zm-3.372-3.96h.18l.156-.048.516.372a9.944 9.944 0 0 1-1.764 1.908 3.053 3.053 0 0 0-.468-.492c.492-.408 1.08-1.08 1.38-1.596v-.144ZM8.74 58.64c1.152-.252 2.94-.708 4.668-1.128l.084.768c-1.608.432-3.312.876-4.56 1.2l-.192-.84Zm4.704-4.104c1.344-.024 3.444-.084 5.484-.156l-.024.708a356.71 356.71 0 0 1-5.4.204l-.06-.756Zm2.004-1.836.804.3c-.36.696-.78 1.488-1.128 2.004l-.624-.264c.312-.552.732-1.44.948-2.04Zm1.836 1.008.612-.384c.72.54 1.536 1.344 1.908 1.92l-.672.42c-.348-.564-1.14-1.392-1.848-1.956Zm.432 1.992h.756v3.036c0 .216.012.36.06.396.036.036.096.06.18.06h.3c.084 0 .18-.012.216-.048.06-.036.096-.12.132-.264.024-.168.036-.528.036-1.008.156.12.42.252.612.312-.012.468-.036.996-.108 1.176a.62.62 0 0 1-.324.384c-.132.072-.336.096-.516.096h-.516c-.216 0-.468-.048-.612-.192-.156-.144-.216-.324-.216-1.008V55.7Zm-3.6.024h.756v1.308c0 .972-.264 2.16-1.8 2.928a3.664 3.664 0 0 0-.552-.492c1.38-.672 1.596-1.668 1.596-2.448v-1.296Zm7.5-5.964H32.2v.816H21.616v-.816Zm2.808-.828h.9v2.592h-.9v-2.592Zm4.02 0h.912v2.46h-.912v-2.46Zm-6.864 6.912h10.656v.804H21.58v-.804Zm4.812-.924h.936v5.04h-.936v-5.04Zm-.348 1.26.732.348c-1.104 1.38-3.084 2.616-4.86 3.216a3.56 3.56 0 0 0-.624-.792c1.764-.492 3.744-1.596 4.752-2.772Zm1.668.06c.984 1.176 2.916 2.184 4.728 2.628-.204.192-.48.552-.612.792-1.812-.552-3.756-1.728-4.824-3.12l.708-.3Zm2.904-4.968.72.708c-2.34.54-6.072.804-9.144.864a3.25 3.25 0 0 0-.216-.78c3.024-.072 6.696-.336 8.64-.792Zm-8.088 2.184.756-.312c.468.528.936 1.26 1.104 1.776l-.804.348c-.156-.516-.612-1.26-1.056-1.812Zm3.312-.312.792-.264c.336.528.672 1.2.756 1.68l-.84.288c-.084-.468-.384-1.176-.708-1.704Zm4.728-.456.912.336c-.492.804-1.092 1.728-1.572 2.316l-.696-.312a14.148 14.148 0 0 0 1.356-2.34Zm6.593-2.824-2.813 10.449h-.498l2.812-10.45h.499Zm6.87-.308h4.825v5.088h-4.824v-.78h3.96v-3.516h-3.96v-.792Zm.06 2.148h4.32v.792h-4.32v-.792Zm-.48-2.148h.853v9.552h-.852v-9.552Zm-.983 9.312c1.044-.168 2.604-.492 4.152-.792l.06.804c-1.38.312-2.844.624-3.948.864l-.264-.876Zm6.264-3.816.612.672c-.756.588-1.704 1.272-2.424 1.704l-.444-.54c.684-.444 1.692-1.26 2.256-1.836Zm-2.676-.876c.516 2.328 1.656 4.26 3.516 5.064-.204.18-.48.504-.612.756-1.956-.972-3.096-3.06-3.672-5.664l.768-.156Zm-7.5-2.676h4.236v.852h-4.236V51.5Zm1.812-2.58h.852v11.028h-.852V48.92Zm-.048 3.108.576.204c-.396 1.92-1.26 4.272-2.16 5.484-.096-.24-.312-.6-.468-.804.852-1.08 1.692-3.156 2.052-4.884Zm.84 1.296c.312.336 1.464 1.8 1.704 2.16l-.552.708c-.3-.6-1.236-1.968-1.596-2.448l.444-.42Zm9.948 5.424h10.896v.78H51.268v-.78Zm.972-2.688h9.036v.78H52.24v-.78Zm-.468-4.332h9.924v.768h-9.924v-.768Zm4.452 4.752h.912v2.772h-.912V56.48Zm-2.496-3.948.828.216a19.556 19.556 0 0 1-1.092 1.476c.48.504.972 1.116 1.236 1.512l-.768.348c-.264-.492-.804-1.2-1.416-1.836.456-.576.936-1.26 1.212-1.716Zm3.06 0 .84.228c-.372.48-.828 1.02-1.224 1.464.516.48 1.068 1.092 1.356 1.488l-.756.348c-.312-.492-.912-1.188-1.572-1.812a18.09 18.09 0 0 0 1.356-1.716Zm3.204 0 .828.24c-.396.48-.888 1.02-1.332 1.452.576.48 1.188 1.092 1.5 1.488l-.732.372c-.36-.492-1.056-1.212-1.788-1.836a19.236 19.236 0 0 0 1.524-1.716Zm-5.844-3.6h.888v2.532h-.888v-2.532Zm4.14 0h.876v2.532h-.876v-2.532Zm-6.852.828h10.56v.768h-10.56v-.768ZM26.928 27.1a.75.75 0 0 0-.985 1.132l.985-1.131Zm3.079 4.67a.75.75 0 0 0 .985-1.13l-.985 1.13Zm-5.294-.31a.75.75 0 0 0-1.041 1.08l1.041-1.08Zm3.098 5.076a.75.75 0 1 0 1.042-1.08l-1.042 1.08Zm-5.589-.567a.75.75 0 0 0-1.059 1.062l1.06-1.062Zm1.04 3.154a.75.75 0 1 0 1.059-1.062l-1.059 1.062Zm24.323-25.969.691.29-.691-.29Zm-2.051 2.27-.358-.66a.75.75 0 0 0-.38.527l.738.133Zm-6.468-5.845.692.29-.692-.29Zm-.183 3.053.611.434a.75.75 0 0 0 .11-.64l-.721.206Zm-.395.711-.692-.29.692.29Zm0 2.86.464.588a.75.75 0 0 0 .227-.878l-.692.29Zm-.892 1.175-.692-.29.692.29Zm1.581 3.87-.29.691.29-.691Zm3.87-1.582-.691-.29.692.29Zm.215-1.459-.278-.697a.75.75 0 0 0-.468.778l.746-.08Zm2.04-2.003-.691-.29.691.29Zm8.26 6.786.344.667-.343-.667Zm-3.029.42.15-.735a.75.75 0 0 0-.63.159l.48.576Zm-1.197-8.635.343.667-.343-.667Zm-2.103 2.22.19.726a.75.75 0 0 0 .495-.42l-.685-.305Zm-.76.292-.343-.667.343.667Zm-1.839 2.19-.022.75a.75.75 0 0 0 .739-.527l-.717-.223Zm-1.438.327.344.667-.343-.667Zm-1.276 3.981-.666.343.666-.343Zm3.982 1.276.343.667-.343-.667Zm1.102-.98.235-.712a.75.75 0 0 0-.858.295l.623.417Zm2.85-.222-.343-.667.343.667ZM47.621 9.195a.75.75 0 0 0 .058 1.5l-.058-1.5Zm4.028 5.189a.75.75 0 1 0 1.497-.095l-1.497.095ZM40.732 33.188c-1.466 1.585-6.003 5.164-10.614 7.97-2.3 1.399-4.573 2.577-6.453 3.217-.941.32-1.745.491-2.382.506-.641.014-1.021-.13-1.24-.333l-1.018 1.102c.614.568 1.443.75 2.291.73.852-.019 1.819-.24 2.832-.585 2.032-.691 4.413-1.935 6.75-3.356 4.663-2.838 9.333-6.501 10.935-8.232l-1.101-1.02Zm-20.689 11.36c-.218-.202-.392-.57-.427-1.21-.036-.636.073-1.45.319-2.414.491-1.924 1.49-4.281 2.706-6.683 2.439-4.815 5.655-9.617 7.121-11.201l-1.101-1.02c-1.602 1.732-4.891 6.673-7.358 11.543-1.236 2.44-2.29 4.91-2.821 6.99-.265 1.037-.411 2.018-.364 2.868.047.848.292 1.66.907 2.229l1.018-1.102Zm9.719-21.509c2.784-3.009 7.498-3.184 10.53-.379l1.019-1.101c-3.635-3.363-9.299-3.16-12.65.462l1.101 1.018Zm10.53-.379c3.032 2.805 3.224 7.519.44 10.528l1.101 1.019c3.352-3.623 3.113-9.285-.522-12.648l-1.019 1.101Zm-14.349 5.572 4.064 3.539.985-1.131-4.064-3.54-.985 1.132Zm-2.271 4.308 4.14 3.996 1.041-1.08-4.14-3.996-1.041 1.08Zm-2.509 4.491 2.1 2.092 1.058-1.062-2.099-2.092-1.059 1.062Zm25.73-24.167a3.85 3.85 0 0 1-1.718 1.9l.717 1.319a5.35 5.35 0 0 0 2.384-2.638l-1.383-.58ZM44.823 7.8a3.87 3.87 0 0 1 2.07 5.065l1.383.58a5.37 5.37 0 0 0-2.872-7.028l-.58 1.383Zm-5.065 2.07a3.87 3.87 0 0 1 5.065-2.07l.58-1.383a5.37 5.37 0 0 0-7.028 2.872l1.383.58Zm-.154 2.557a3.85 3.85 0 0 1 .154-2.557l-1.383-.58a5.35 5.35 0 0 0-.213 3.549l1.442-.412Zm-1.333-.228a4.46 4.46 0 0 0-.475.855l1.383.58c.086-.204.193-.394.315-.567l-1.223-.868Zm-.475.855a4.434 4.434 0 0 0 0 3.44l1.383-.58a2.935 2.935 0 0 1 0-2.28l-1.383-.58Zm.226 2.561a3.693 3.693 0 0 0-1.118 1.473l1.383.58c.15-.357.382-.652.665-.876l-.93-1.177Zm-1.118 1.473a3.706 3.706 0 0 0 1.983 4.852l.58-1.383a2.206 2.206 0 0 1-1.18-2.888l-1.383-.58Zm1.983 4.852a3.706 3.706 0 0 0 4.852-1.983l-1.383-.58a2.206 2.206 0 0 1-2.888 1.18l-.58 1.383Zm4.852-1.983c.25-.597.334-1.226.268-1.83l-1.49.162c.038.358-.01.73-.161 1.088l1.383.58Zm-.2-1.052a4.434 4.434 0 0 0 2.455-2.41l-1.383-.58a2.934 2.934 0 0 1-1.627 1.596l.555 1.394Zm2.455-2.41c.129-.307.221-.621.278-.938l-1.477-.265a2.952 2.952 0 0 1-.184.623l1.383.58Zm7.226 5.829a3.85 3.85 0 0 1-2.538.352l-.298 1.47a5.35 5.35 0 0 0 3.522-.488l-.686-1.334Zm1.67-5.211a3.87 3.87 0 0 1-1.67 5.21l.686 1.335a5.37 5.37 0 0 0 2.318-7.231l-1.334.686Zm-5.21-1.67a3.87 3.87 0 0 1 5.21 1.67l1.334-.686a5.37 5.37 0 0 0-7.231-2.318l.686 1.334Zm-1.762 1.86a3.85 3.85 0 0 1 1.761-1.86l-.686-1.334a5.35 5.35 0 0 0-2.445 2.582l1.37.612Zm-.875-1.032a4.46 4.46 0 0 0-.913.35l.686 1.334c.198-.102.401-.179.606-.233l-.379-1.45Zm-.913.35a4.435 4.435 0 0 0-2.212 2.635l1.433.445a2.93 2.93 0 0 1 1.465-1.746l-.686-1.334Zm-1.473 2.107a3.693 3.693 0 0 0-1.804.41l.687 1.334a2.193 2.193 0 0 1 1.072-.244l.045-1.5Zm-1.804.41a3.706 3.706 0 0 0-1.6 4.991l1.334-.686a2.206 2.206 0 0 1 .953-2.971l-.687-1.334Zm-1.6 4.991a3.706 3.706 0 0 0 4.992 1.6l-.686-1.334a2.206 2.206 0 0 1-2.972-.952l-1.334.686Zm4.992 1.6a3.693 3.693 0 0 0 1.382-1.229l-1.246-.835a2.19 2.19 0 0 1-.822.73l.686 1.334Zm.523-.934c1.092.36 2.325.3 3.43-.268l-.687-1.334a2.934 2.934 0 0 1-2.272.177l-.47 1.425Zm3.43-.268c.296-.153.568-.334.815-.54l-.96-1.152a2.956 2.956 0 0 1-.542.358l.686 1.334Zm-2.519-13.832c2.188-.085 3.825 1.405 3.97 3.69l1.497-.095c-.194-3.063-2.49-5.212-5.525-5.094l.058 1.5Z"/>
</svg>
