<svg xmlns="http://www.w3.org/2000/svg" width="49" height="37" fill="none" viewBox="0 0 49 37">
  <path stroke="#601986" stroke-linecap="round" stroke-width="1.5" d="M6.5 12h22m-22 15h22m-22-5h22m-14-15h14m-22 10h22m5-14.933v29.866c0 .59-.477 1.067-1.067 1.067H2.567c-.59 0-1.067-.477-1.067-1.067V2.067C1.5 1.477 1.978 1 2.567 1h29.866c.59 0 1.067.478 1.067 1.067Z"/>
  <path fill="#fff" d="m19.704 30.32 2.093-6.978c.024-.08.058-.156.1-.227l.926-1.542a1 1 0 0 1 .498-.419l4.653-1.79a.998.998 0 0 0 .156-.075L30 18.167l2.389-1.024a1 1 0 0 1 .68-.039l3.542 1.063 2.722 1.166 4.989 2.138a1 1 0 0 1 .576.677l.269 1.074 2.12 7.07a1 1 0 0 1-.403 1.118l-3.895 2.598a1 1 0 0 1-.338.144l-6.71 1.49a1.002 1.002 0 0 1-.217.025h-5.219c-.077 0-.154-.01-.23-.027l-6.301-1.483a1.002 1.002 0 0 1-.36-.164l-3.54-2.576a1 1 0 0 1-.37-1.096Z"/>
  <path stroke="#601986" stroke-linecap="round" stroke-width="1.3" d="m21.833 22.833-2.292 7.78a.686.686 0 0 0 .136.7c1.525 1.624 5.978 4.354 13.82 4.354 7.866 0 12.321-2.828 13.834-4.5a.687.687 0 0 0 .13-.685l-2.294-7.649m-17.3-3.358c-3.597.693-6.034 2.03-6.034 3.565 0 2.249 5.224 4.071 11.667 4.071s11.667-1.822 11.667-4.07c0-1.648-2.805-3.067-6.84-3.708M24.168 24c.107-.709.683-1.956 2.14-2.128.475-.056.91-.41 1.013-.876.247-1.105.973-2.474 2.663-2.833a1.03 1.03 0 0 0 .478-.248c.847-.773 2.637-1.595 4.522-.008a.975.975 0 0 0 .54.222c1.053.096 2.707.69 3.306 2.46.154.453.618.773 1.096.785 1.077.027 2.446.585 2.908 2.626m-14-1.556c.519.26 1.634 1.012 1.945 1.945m6.61-2.722c-.388 0-1.4.233-2.332 1.166"/>
</svg>
