<svg xmlns="http://www.w3.org/2000/svg" width="70" height="70" fill="none" viewBox="0 0 70 70">
  <rect width="70" height="70" fill="#E4007F" rx="10"/>
  <path fill="#fff" d="M23.42 55.256v1.168h7.472v-1.168H23.42Zm0-2.624v1.152h7.472v-1.152H23.42Zm-1.856-1.584h11.264v6.96H21.564v-6.96Zm4.576.544h1.856v5.632H26.14v-5.632Zm-1.424-3.248h4.032v1.52h-5.104l1.072-1.52Zm-.736-1.04 2.112.432c-1.2 2-2.832 3.968-5.136 5.616-.288-.464-.928-1.168-1.36-1.488 2.08-1.296 3.552-3.056 4.384-4.56Zm4.192 1.04h.432l.288-.08 1.36.832c-.512 1.024-1.488 2.304-2.256 3.136a15.42 15.42 0 0 0-1.584-.96c.704-.72 1.472-1.888 1.76-2.576v-.352Zm-3.76 10.672 1.824-.176c.224 1.04.416 2.368.432 3.184l-1.936.24c0-.832-.128-2.192-.32-3.248Zm3.088.048 1.744-.4c.48.96.976 2.256 1.184 3.088l-1.872.464c-.16-.8-.624-2.144-1.056-3.152Zm3.072-.032 1.76-.752c.848.992 1.92 2.368 2.384 3.328l-1.888.848c-.4-.912-1.408-2.384-2.256-3.424Zm-8.912-.576 1.888.512c-.512 1.312-1.344 2.656-2.288 3.504l-1.776-1.008c.848-.64 1.696-1.84 2.176-3.008ZM36.62 56.2h6.928v1.648H36.62V56.2Zm0-6.048h6.8v1.488h-6.8v-1.488Zm5.296-2.464 1.584.416c-.4.736-.784 1.456-1.088 1.952l-1.232-.4c.272-.56.576-1.392.736-1.968Zm-2.736-.08h1.664v7.152H39.18v-7.152Zm-2.432.624 1.28-.48c.368.576.72 1.328.832 1.84l-1.36.528c-.08-.512-.4-1.296-.752-1.888Zm2.608 10.896 1.12-1.152c.976.608 2.336 1.552 3.008 2.16L42.3 61.432c-.624-.624-1.968-1.632-2.944-2.304Zm1.408-7.536c.576.272 2.432 1.376 2.864 1.68l-.992 1.344c-.624-.592-2.096-1.728-2.816-2.208l.944-.816ZM39.068 51l1.232.448c-.64 1.36-1.792 2.8-2.928 3.568a6.694 6.694 0 0 0-1.104-1.232c1.072-.592 2.208-1.728 2.8-2.784Zm4.544-2.96h7.632v1.648h-7.632V48.04Zm2.176 6.4v.976h3.216v-.976h-3.216Zm0 2.304v1.008h3.216v-1.008h-3.216Zm0-4.608v.976h3.216v-.976h-3.216Zm-1.728-1.44h6.752v8.48H44.06v-8.48Zm2.368-1.776 2.112.24a34.91 34.91 0 0 1-1.104 2.656l-1.6-.32c.24-.736.48-1.808.592-2.576Zm-.992 10.272 1.568 1.008c-.816.832-2.16 1.744-3.312 2.256-.304-.368-.832-.912-1.248-1.232 1.104-.464 2.368-1.344 2.992-2.032Zm2.16 1.056 1.36-.944c.88.592 2.08 1.488 2.688 2.096l-1.472 1.024c-.528-.592-1.696-1.536-2.576-2.176Zm-8.464-5.152h1.728v1.744c0 1.824-.464 4.032-3.632 5.392-.192-.416-.688-1.104-1.024-1.424 2.608-1.072 2.928-2.704 2.928-4.016v-1.696Z"/>
  <path stroke="#fff" stroke-linecap="round" stroke-linejoin="round" stroke-width="1.5" d="M49.5 27.055c-19.439 16.137-33.367 8.481-37.5 0 4.418-7.77 16.722-16.804 37.214-.233m.286.233a75.507 75.507 0 0 0-.286-.233m.286.233-.286-.233M28 17.252c.256-.953 1.166-3.139 2.761-4.252 2.2.515 7.425 2.18 10.739 4.716-.435.542-1.396 1.856-1.764 2.784m6.514 3.75c1.67-1.872 5.02-5.573 6.054-6.25L58 20.77 49.114 27 58 33.23 52.304 36c-1.033-.677-4.383-4.378-6.054-6.25M30 36.538c1.134.847 3.734 2.724 5.064 3.462 2.343-.949 7.21-3.154 7.936-4.385-.655.103-2.005-.077-4-1.615"/>
</svg>
