<svg xmlns="http://www.w3.org/2000/svg" width="35" height="34" fill="none" viewBox="0 0 35 34">
  <path stroke="#E4007F" stroke-linecap="round" stroke-linejoin="round" stroke-width="1.5" d="M33.5 2.067v29.866c0 .59-.477 1.067-1.067 1.067H2.567c-.59 0-1.067-.477-1.067-1.067V2.067C1.5 1.477 1.978 1 2.567 1h29.866c.59 0 1.067.478 1.067 1.067Z"/>
  <path fill="#E4007F" d="M13.296 15.8h-1.71a1.674 1.674 0 0 0-.192-.59 1.5 1.5 0 0 0-.371-.444 1.634 1.634 0 0 0-.524-.282 2.002 2.002 0 0 0-.636-.097 1.9 1.9 0 0 0-1.082.308c-.308.203-.546.5-.715.89-.17.389-.254.86-.254 1.415 0 .57.084 1.05.254 1.438.172.388.411.68.718.878.308.198.663.297 1.067.297.226 0 .436-.03.629-.09.195-.06.368-.147.52-.261.15-.117.275-.26.374-.426.102-.167.172-.357.211-.57l1.711.007a3.192 3.192 0 0 1-1.04 1.973 3.326 3.326 0 0 1-1.054.633c-.406.154-.865.23-1.378.23-.714 0-1.352-.161-1.915-.484a3.439 3.439 0 0 1-1.328-1.402c-.323-.612-.484-1.353-.484-2.223 0-.872.164-1.615.492-2.227a3.43 3.43 0 0 1 1.336-1.398c.563-.323 1.195-.484 1.899-.484.463 0 .893.065 1.289.195.398.13.75.32 1.058.57.308.248.558.551.75.91.196.36.32.771.375 1.235ZM15.06 21v-8h3.203c.589 0 1.08.087 1.473.262.393.174.689.416.887.726.198.308.297.662.297 1.063 0 .312-.063.587-.188.824a1.617 1.617 0 0 1-.516.578 2.112 2.112 0 0 1-.742.317v.078a1.826 1.826 0 0 1 1.508.926c.167.283.25.622.25 1.015 0 .424-.106.803-.316 1.137-.209.33-.517.592-.926.785-.41.193-.913.289-1.512.289H15.06Zm1.691-1.383h1.38c.47 0 .815-.09 1.03-.27a.903.903 0 0 0 .325-.726c0-.221-.053-.417-.16-.586a1.088 1.088 0 0 0-.457-.398 1.566 1.566 0 0 0-.7-.145H16.75v2.125Zm0-3.27h1.254c.232 0 .438-.04.618-.12.182-.084.325-.201.43-.352a.917.917 0 0 0 .16-.543.878.878 0 0 0-.31-.7c-.202-.176-.491-.265-.866-.265H16.75v1.98Zm13.19-.546h-1.71a1.675 1.675 0 0 0-.192-.59 1.503 1.503 0 0 0-.371-.445 1.632 1.632 0 0 0-.524-.282 2.003 2.003 0 0 0-.637-.097 1.9 1.9 0 0 0-1.082.308c-.307.203-.545.5-.714.89-.17.389-.254.86-.254 1.415 0 .57.084 1.05.254 1.438.171.388.411.68.718.878.308.198.663.297 1.067.297.226 0 .436-.03.629-.09.195-.06.368-.147.52-.261a1.51 1.51 0 0 0 .374-.426 1.66 1.66 0 0 0 .211-.57l1.711.007a3.194 3.194 0 0 1-1.039 1.973 3.329 3.329 0 0 1-1.055.633c-.406.154-.866.23-1.378.23-.714 0-1.352-.161-1.915-.484a3.439 3.439 0 0 1-1.328-1.402c-.323-.612-.484-1.353-.484-2.223 0-.872.164-1.615.492-2.227a3.43 3.43 0 0 1 1.336-1.398c.563-.323 1.195-.484 1.899-.484a4.1 4.1 0 0 1 1.288.195c.399.13.752.32 1.06.57.306.248.556.551.75.91.194.36.32.771.374 1.235Z"/>
</svg>
