<svg xmlns="http://www.w3.org/2000/svg" width="35" height="34" fill="none" viewBox="0 0 35 34">
  <path stroke="#E4007F" stroke-linecap="round" stroke-linejoin="round" stroke-width="1.5" d="M33.5 2.067v29.866c0 .59-.477 1.067-1.067 1.067H2.567c-.59 0-1.067-.477-1.067-1.067V2.067C1.5 1.477 1.978 1 2.567 1h29.866c.59 0 1.067.478 1.067 1.067Z"/>
  <path fill="#E4007F" d="M8.87 13.727h1.538v4.723c0 .53-.127.995-.38 1.392a2.541 2.541 0 0 1-1.055.93c-.452.22-.979.331-1.58.331-.604 0-1.132-.11-1.584-.33a2.54 2.54 0 0 1-1.055-.93c-.25-.398-.376-.862-.376-1.393v-4.723h1.537v4.592c0 .277.06.523.182.739.123.215.295.384.518.507.223.123.482.185.778.185.298 0 .557-.062.777-.185.223-.123.395-.292.515-.508a1.46 1.46 0 0 0 .185-.738v-4.592ZM11.944 21v-5.454h1.467v.951h.057c.1-.338.266-.594.5-.767a1.32 1.32 0 0 1 .81-.263 2.307 2.307 0 0 1 .476.054v1.342a2.642 2.642 0 0 0-.64-.082 1.21 1.21 0 0 0-.596.146 1.072 1.072 0 0 0-.56.987V21h-1.514Zm4.392 0v-5.454h1.513V21h-1.513Zm.76-6.158a.822.822 0 0 1-.579-.223.725.725 0 0 1-.238-.544.71.71 0 0 1 .238-.536.815.815 0 0 1 .58-.227c.224 0 .416.075.574.227a.72.72 0 0 1 0 1.08.809.809 0 0 1-.575.223Zm3.777 3.005V21h-1.512v-5.454h1.441v.962h.064c.121-.317.324-.568.608-.753.284-.187.628-.28 1.033-.28.379 0 .71.082.99.248.282.166.502.402.658.71.156.306.234.67.234 1.094V21h-1.513v-3.203c.003-.334-.082-.594-.255-.781-.173-.19-.411-.284-.714-.284a1.09 1.09 0 0 0-.54.13.916.916 0 0 0-.362.384 1.33 1.33 0 0 0-.131.6Zm7.494 3.26c-.56 0-1.044-.114-1.449-.341a2.335 2.335 0 0 1-.93-.973c-.218-.422-.327-.92-.327-1.495 0-.561.11-1.054.327-1.478.218-.424.524-.754.92-.99.397-.237.864-.356 1.399-.356.36 0 .695.058 1.005.174.312.114.585.286.817.515.234.23.416.519.546.867.13.345.196.75.196 1.214v.416h-4.606v-.938h3.182c0-.218-.048-.41-.142-.579a1.017 1.017 0 0 0-.395-.394 1.124 1.124 0 0 0-.578-.145c-.23 0-.434.053-.611.16a1.12 1.12 0 0 0-.412.422c-.1.175-.15.37-.153.586v.891c0 .27.05.503.15.7.101.196.244.348.43.454.184.107.403.16.656.16.168 0 .322-.023.462-.07a.927.927 0 0 0 .586-.561l1.399.091a1.91 1.91 0 0 1-.437.881c-.218.249-.5.443-.845.583-.343.137-.74.206-1.19.206Z"/>
</svg>
